{
  "minecraft:recipes/misc/beacon": {
    "criteria": {
      "has_nether_star": "2020-04-27 17:35:17 +0200"
    },
    "done": true
  },
  "minecraft:adventure/adventuring_time": {
    "criteria": {
      "minecraft:plains": "2020-04-27 17:35:15 +0200"
    },
    "done": false
  },
  "DataVersion": 2230
}