{
  "minecraft:adventure/adventuring_time": {
    "criteria": {
      "minecraft:forest": "2020-05-04 10:56:39 +0200",
      "minecraft:beach": "2020-05-04 10:56:14 +0200"
    },
    "done": false
  },
  "DataVersion": 2230
}